%YAML 1.1
%TAG !u! tag:unity3d.com,2011:
--- !u!1045 &1
EditorBuildSettings:
  m_ObjectHideFlags: 0
  serializedVersion: 2
  m_Scenes:
  - enabled: 1
    path: Assets/Scenes/Splash.unity
    guid: 63b7b9807665845808b8c88dc3eef477
  - enabled: 1
    path: Assets/Scenes/Level 1.unity
    guid: 0f707265442074150b0ca9f90df8d507
  m_configObjects: {}
